[
    {
        "scope": [
            "registrar"
        ],
        "resource": "/api/",
        "access": [
            "read",
            "write"
        ]
    },
    {
        "scope": [
            "students",
            "teachers"
        ],
        "resource": "/api/users/me",
        "access": [
            "read"
        ]
    },
    {
        "scope": [
            "students"
        ],
        "resource": "/api/LocalDepartments/?$",
        "access": [
            "read"
        ]
    },
    {
        "scope": [
            "students",
            "teachers"
        ],
        "resource": "/api/GradeScales/?$",
        "access": [
            "read"
        ]
    },
    {
        "scope": [
            "students"
        ],
        "resource": "/api/DocumentConfigurations/?$",
        "access": [
            "read"
        ]
    },
    {
        "scope": [
            "students"
        ],
        "resource": "/api/students/me",
        "access": [
            "read"
        ]
    },
    {
        "scope": [
            "students"
        ],
        "resource": "/api/students/me/currentRegistration",
        "access": [
            "read",
            "write"
        ]
    },
    {
        "scope": [
            "students"
        ],
        "resource": "/api/students/me/currentRegisterAction",
        "access": [
            "read",
            "write"
        ]
    },
    {
        "scope": [
            "students"
        ],
        "resource": "/api/requestDocumentActions/?$",
        "access": [
            "read",
            "write"
        ]
    },
    {
        "scope": [
            "teachers"
        ],
        "resource": "/api/instructors/me",
        "access": [
            "read"
        ]
    },
    {
        "scope": [
            "teachers"
        ],
        "resource": "/api/instructors/me/exams/(\\d+)/students",
        "access": [
            "read",
            "write"
        ]
    },
    {
        "scope": [
            "teachers"
        ],
        "resource": "/api/instructors/me/exams/(\\d+)/actions/(\\d+)",
        "access": [
            "read",
            "write"
        ]
    },
    {
        "scope": [
            "teachers"
        ],
        "resource": "/api/content/private/(\\w+)",
        "access": [
            "read"
        ]
    },
    {
        "scope": [
            "students"
        ],
        "resource": "/api/DocumentConfigurations/?$",
        "access": [
            "read"
        ]
    },
    {
        "scope": [
            "students"
        ],
        "resource": "/api/RequestMessageActions/?$",
        "access": [
            "read",
            "write"
        ]
    }

]
