{
    "name": "AcademicYear",
    "type": "lookup",
    "title": "Ακαδημαϊκά έτη",
    "hidden": false,
    "sealed": false,
    "abstract": false,
    "caching": "always",
    "implements": "Enumeration",
    "category":"lookup",
    "version": "1.1",
    "fields": [
        {
            "name": "id",
            "title": "Id",
            "type": "Integer",
            "nullable": false,
            "primary": true
        }
    ],
    "privileges": [
        {
            "mask": 1,
            "type": "global",
            "account": "*"
        },
        {
            "mask": 15,
            "type": "global"
        }
    ],
    "constraints": [
        {
            "type": "unique",
            "description": "Name must be unique across different records",
            "fields": [
                "name"
            ]
        }
    ],
    "eventListeners": [
        {
            "name": "Lookup Cache Listener",
            "type": "./listeners/lookup-cache-listener.js"
        }
    ]
}
