{
  "name": "ClassStatus",
  "title": "Course class status",
  "description":"Κατάσταση διδασκαλίας μαθήματος",
  "hidden": false,
  "sealed": false,
  "abstract": false,
  "caching": "always",
  "implements": "Enumeration",
  "category":"lookup",
  "version": "1.0",
  "fields": [
    {
      "name": "id",
      "title": "Id",
      "type": "Counter",
      "nullable": false,
      "primary": true
    }
  ],
  "privileges": [
    {
      "mask": 1,
      "type": "global",
      "account": "*"
    },
    {
      "mask": 15,
      "type": "global"
    }
  ],
  "constraints": [
    {
      "type": "unique",
      "description": "Alternate name must be unique across different records",
      "fields": [
        "alternateName"
      ]
    },
    {
      "type": "unique",
      "description": "Name must be unique across different records",
      "fields": [
        "name"
      ]
    }
  ],
  "seed": [
    {
      "alternateName": "new",
      "name": "Νέα",
      "identifier": 1,
      "description": "Νέα"
    },
    {
      "alternateName": "registrations",
      "name": "Δηλώσεις",
      "identifier": 10,
      "description": "Διαθέσιμη για δηλώσεις"
    },
    {
      "alternateName": "open",
      "name": "Ανοιχτή",
      "identifier": 20,
      "description": "Ανοιχτή"
    },
    {
      "alternateName": "cancelled",
      "name": "Ακυρώθηκε",
      "identifier": 30,
      "description": "Ακυρώθηκε η διδασκαλία"
    },
    {
      "alternateName": "closed",
      "name": "Κλειστή",
      "identifier": 40,
      "description": "Κλειστή - δεν δέχεται δηλώσεις"
    }
  ],
  "eventListeners": [
    {
      "name": "Lookup Cache Listener",
      "type": "./listeners/lookup-cache-listener.js"
    }
  ]
}