{
    "name": "CourseClassSection",
    "id": 508072,
    "title": "Τμήμα τάξης",
    "description": "Τμήμα, μέρος τάξης",
    "hidden": false,
    "sealed": false,
    "version": "2.0",
    "fields": [
        {
            "name": "id",
            "title": "Κωδικός",
            "description": "Κωδικός τμήματος τάξης μαθήματος",
            "type": "Text",
            "nullable": false,
            "primary": true,
            "size": 22
        },
        {
            "name": "courseClass",
            "title": "Τάξη",
            "description": "Η τάξη του μαθήματος που αναφέρεται το τμήμα",
            "type": "CourseClass",
            "nullable": false
        },
        {
            "name": "section",
            "title": "Αριθμός τμήματος",
            "description": "Ο αριθμός του τμήματος",
            "type": "Integer"
        },
        {
            "name": "sectionIndex",
            "title": "Αύξων αριθμός τμήματος",
            "description": "Αύξων αριθμός τμήματος",
            "type": "Integer"
        },
        {
            "name": "name",
            "title": "Τίτλος",
            "description": "Ο τίτλος του τμήματος της τάξης",
            "type": "Text"
        },
        {
            "name": "maxNumberOfStudents",
            "title": "Μέγιστος αριθμός φοιτητών",
            "description": "Μέγιστος αριθμός φοιτητών που δέχεται το τμήμα τάξης.",
            "type": "Integer",
            "nullable": true,
            "size": 4
        },
        {
            "name": "instructors",
            "title": "Διδάσκοντες",
            "description": "Οι διδάσκοντες του τμήματος τάξης.",
            "type": "Text"
        },
        {
            "name": "notes",
            "title": "Σημειώσεις",
            "description": "Σημειώσεις",
            "type": "Text"
        },
        {
            "name": "active",
            "title": "Ενεργό",
            "description": "Αν είναι ενεργό το τμήμα",
            "type": "Boolean"
        },
        {
            "name": "sectionCategory",
            "title": "Κατηγορία τμήματος τάξης",
            "description": "Κατηγορία τμήματος τάξης",
            "type": "Integer"
        },
        {
            "name": "sectionFilter",
            "title": "Συνθήκη τμήματος τάξης",
            "description": "Συνθήκη τμήματος τάξης",
            "type": "Text"
        },
        {
            "name": "dateModified",
            "title": "Ημερομηνία τελευταίας τροποποίησης",
            "description": "Ημερομηνία τελευταίας τροποποίησης",
            "type": "DateTime",
            "nullable": false,
            "size": 8
        }
    ],
    "privileges": [
        {
            "mask": 1,
            "type": "global",
            "account": "*"
        },
        {
            "mask": 15,
            "type": "global"
        }
    ]
}