{
    "name": "CourseStructureType",
    "id": 912362318,
    "title": "Τύποι δομής μαθημάτων",
    "type": "lookup",
    "hidden": false,
    "sealed": false,
    "version": "2.0",
    "fields": [
        {
            "name": "id",
            "title": "Id",
            "description": "Id",
            "type": "Integer",
            "nullable": false,
            "size": 4,
            "primary": true
        },
        {
            "name": "name",
            "title": "Name",
            "description": "The name of the item.",
            "type": "Text",
            "nullable": false,
            "size": 100
        },
        {
            "name": "isComplete",
            "title": "Complete",
            "description": "Course structure type complete",
            "type": "Boolean",
            "nullable": false
        }
    ],
    "privileges": [
        {
            "mask": 1,
            "type": "global",
            "account": "*"
        },
        {
            "mask": 15,
            "type": "global"
        }
    ],
    "seed":[
            {
                "id": 1,
                "name": "Simple",
                "isComplete": 1
            },
            {
                "id": 8,
                "name": "Course part",
                "isComplete": 0
            },
            {
                "id": 4,
                "name": "Complex",
                "isComplete": 1
            }
    ],
    "eventListeners": [
        {
            "name": "Lookup Cache Listener",
            "type": "./listeners/lookup-cache-listener.js"
        }
    ]
}