{
    "name": "CourseType",
    "id": 909962318,
    "title": "Τύπος μαθήματος",
    "type": "lookup",
    "hidden": false,
    "sealed": false,
    "version": "2.1",
    "implements":"Enumeration",
    "category":"lookup",
    "fields": [
        {
            "name": "id",
            "title": "Id",
            "type": "Counter",
            "nullable": false,
            "primary": true
        },
        {
            "name": "abbreviation",
            "title": "Abbreviation",
            "description": "Abbreviation",
            "type": "Text",
            "nullable": true,
            "size": 5
        }

    ],
    "privileges": [
        {
            "mask": 1,
            "type": "global",
            "account": "*"
        },
        {
            "mask": 15,
            "type": "global"
        }
    ],
    "seed":[
        {
            "alternateName": "Υ",
            "name": "Υποχρεωτικό",
            "description":"Υποχρεωτικό μάθημα για τη λήψη πτυχίου"
        },
        {
            "alternateName": "Ε",
            "name": "Επιλογής",
            "description":"Το μάθημα είναι επιλεγόμενο από μια σειρά μαθημάτων"
        },
        {
            "alternateName": "ΥΕ",
            "name": "Υποχρεωτικό κατ’ επιλογήν",
            "description":"Το μάθημα είναι επιλεγόμενο από μια υποχρεωτική για τη λήψη πτυχίου ομάδα μαθημάτων"
        },
        {
            "alternateName": "ΞΓ",
            "name": "Ξένη γλώσσα",
            "description":"Το μάθημα αποτελεί μάθημα ξένης γλώσσας"
        },
        {
            "alternateName": "ΥΚ",
            "name": "Υποχρεωτικό κατεύθυνσης",
            "description":"Υποχρεωτικό μάθημα κατεύθυνσης για τη λήψη πτυχίου"
        },
        {
            "alternateName": "ΕΚ",
            "name": "Επιλογής κατεύθυνσης",
            "description":"Το μάθημα είναι επιλεγόμενο για μια κατεύθυνση από μια σειρά μαθημάτων"
        },
        {
            "alternateName": "ΠΡ",
            "name": "Προαιρετικό",
            "description":"Προαιρετικό μάθημα για τη λήψη πτυχίου (συνήθως δεν υπολογίζεται στο βαθμό πτυχίου)"
        },
        {
            "alternateName": "ΕΕ",
            "name": "Ελεύθερης επιλογής",
            "description":"Το μάθημα είναι επιλεγόμενο από μια σειρά μαθημάτων (συνήθως προσφερόμενων από άλλα συναφή τμήματα του ιδρύματος"
        }
    ]
    ,
    "eventListeners": [
        {
            "name": "Lookup Cache Listener",
            "type": "./listeners/lookup-cache-listener.js"
        }
    ]
}