{
    "name": "Group",
    "id": 91,
    "title": "User Group",
    "inherits": "Account",
    "hidden": false,
    "sealed": false,
    "abstract": false,
    "version": "2.0",
    "fields": [
        {
            "name": "id",
            "title": "Id",
            "description": "The identifier of the item.",
            "type": "Integer",
            "nullable": false,
            "primary": true
        },
        {
            "name": "members",
            "title": "Group Members",
            "description": "Contains the collection of group members (users or groups).",
            "type": "Account",
            "many": true
        },
        {
            "name": "tags",
            "title": "Group Tags",
            "description": "Contains a collection of tags for this object.",
            "type": "Text",
            "many": true
        },
        {
            "name": "additionalType",
            "value": "javascript:return 'Group';"
        },
        {
            "name": "accountType",
            "value": "javascript:return 1;"
        }
    ],
    "privileges": [
        {
            "mask": 1,
            "type": "global",
            "account": "*"
        },
        {
            "mask": 15,
            "type": "global"
        }
    ],
    "seed": [
        {
            "name": "Administrators",
            "alternateName": "Site Administrators"
        },
        {
            "name": "Users",
            "alternateName": "Site Users"
        }
    ],
    "eventListeners": [
    ]
}