{
    "$schema": "https://themost-framework.github.io/themost/models/2018/2/schema.json",
    "@id": "https://universis.io/entities/InstituteConfiguration",
    "name": "InstituteConfiguration",
    "description": "Contains a collection of configuration for an educational institute.",
    "title": "InstituteConfiguration",
    "abstract": false,
    "sealed": false,
    "hidden": true,
    "version": "1.3",
    "implements": "Thing",
    "fields": [
        {
            "@id": "http://schema.org/additionalType",
            "name": "additionalType",
            "title": "additionalType",
            "description": "An additional type for the item.",
            "type": "URL",
            "value": "javascript:return this.model.name",
            "nullable": false,
            "readonly": true
        },
        {
            "@id": "https://universis.io/properties/institute",
            "name": "institute",
            "title": "Institute",
            "description": "An educational institute associated with this configuration",
            "type": "Institute",
            "editable": false,
            "nullable": false
        },
        {
            "@id": "https://universis.io/properties/useStudentRegisterAction",
            "name": "useStudentRegisterAction",
            "title": "Use Student Register Action",
            "type": "Boolean",
            "nullable": true
        },
        {
            "@id": "https://universis.io/properties/showPendingGrades",
            "name": "showPendingGrades",
            "title": "Show pending grades to student grades service",
            "type": "Boolean",
            "nullable": true

        },
        {
            "@id": "https://universis.io/properties/allowRemoveAutoRegisteredCourseClass",
            "name": "allowRemoveAutoRegisteredCourseClass",
            "title": "Allow student to remove registered classes",
            "type": "Boolean",
            "nullable": true
        }
    ],
    "constraints": [
        {
            "type": "unique",
            "fields": [ "institute" ]
        }
    ],
    "privileges": [
        {
            "mask": 15,
            "type": "global"
        },
        {
            "mask": 15,
            "type": "global",
            "account": "Administrators"
        }
    ]
}
