{
    "@id": "https://themost.io/schemas/RequestDocumentAction",
    "name": "RequestDocumentAction",
    "description": "The act of requesting an academic document",
    "title": "RequestDocumentAction",
    "abstract": false,
    "sealed": false,
    "inherits": "StudentRequestAction",
    "version": "1.3",
    "fields": [
        {
            "@id": "http://schema.org/object",
            "name": "object",
            "title": "object",
            "nullable": false,
            "type": "DocumentConfiguration"
        },
        {
            "@id": "http://schema.org/additionalType",
            "name": "additionalType",
            "readonly": true,
            "nullable": false,
            "value": "javascript:return this.model.name;"
        },
        {
            "@id": "http://schema.org/actionStatus",
            "name": "actionStatus",
            "title": "actionStatus",
            "description": "Indicates the current disposition of the Action.",
            "type": "ActionStatusType",
            "value": "javascript:return { alternateName:'ActiveActionStatus' };"
        },
        {
            "@id": "https://themost.io/schemas/documentCopies",
            "name": "documentCopies",
            "type": "Integer",
            "many": false,
            "nullable": false,
            "value": "javascript:return 1;"
        }
    ],
    "privileges": [
        {
            "mask": 15,
            "type": "global"
        },
        {
            "mask": 15,
            "type": "global",
            "account": "Administrators"
        },
        {
            "mask": 1,
            "type": "self",
            "filter": "owner eq me()"
        },
        {
            "mask": 2,
            "type": "self",
            "filter": "owner eq me()"
        },
        {
            "mask": 15,
            "type": "self",
            "account": "Registrar",
            "filter": "student/department eq departments()"
        }
    ]
}
