{ "name": "StudentAvailableClassRule", "type":"memory", "id": 5508131, "title": "Student Available Class Rule", "hidden": true, "sealed":true,"version": "0.1",
    "inherits":"Rule" ,
    "classPath":"./rules/student-available-class-rule", "fields": [
    {
        "name": "id",
        "title": "Id",
        "description": "Id",
        "type": "Integer",
        "nullable": false,
        "primary":true
    }
], "privileges":[
    { "mask":1, "type":"global", "account":"*" },
    { "mask":15, "type":"global" }
]}
