{
    "@id": "https://themost.io/schemas/StudentRequestAction",
    "name": "StudentRequestAction",
    "description": "The act of requesting something",
    "title": "StudentRequestAction",
    "abstract": false,
    "sealed": false,
    "inherits": "RequestAction",
    "version": "1.2",
    "fields": [
        {
            "name": "student",
            "title": "Student",
            "description": "Student",
            "type": "Student",
            "nullable": true,
            "value": "javascript:return this.student();"
        }
    ],
    "privileges": [
        {
            "mask": 15,
            "type": "global"
        },
        {
            "mask": 15,
            "type": "global",
            "account": "Administrators"
        },
        {
            "mask": 3,
            "type": "self",
            "filter": "owner eq me()"
        },
        {
            "mask": 15,
            "type": "self",
            "account": "Registrar",
            "filter": "student/department eq departments()"
        }
    ]
}
