{
  "name": "StudentProgramGroup",
  "title": "Student program groups",
  "hidden": false,
  "sealed": false,
  "version": "2.0",
  "fields": [
    {
      "name": "id",
      "title": "Id",
      "description": "Id",
      "type": "Text",
      "nullable": false,
      "size": 36,
      "primary": true,
      "readonly": true,
      "value": "javascript:return this.newGuid();"
    },
    {
      "name": "programGroup",
      "title": "Κωδικός ομάδας προγράμματος σπουδών",
      "description": "Κωδικός ομάδας προγράμματος σπουδών",
      "type": "ProgramGroup",
      "nullable": true
    },
    {
      "name": "student",
      "property": "student",
      "title": "Κωδικός φοιτητή",
      "description": "Κωδικός φοιτητή",
      "type": "Student",
      "nullable": false
    },
    {
      "name": "gradeYear",
      "title": "Ακαδημαϊκό έτος βαθμολογίας",
      "description": "Ακαδημαϊκό έτος βαθμολογίας",
      "type": "AcademicYear",
      "expandable": true
    },
    {
      "name": "gradePeriod",
      "title": "Περίοδος βαθμολογίας",
      "description": "Περίοδος βαθμολογίας",
      "type": "AcademicPeriod",
      "expandable": true
    },
    {
      "name": "semester",
      "title": "Εξάμηνο μαθήματος",
      "description": "Εξάμηνο μαθήματος",
      "type": "Semester",
      "expandable": true,
      "nullable": false
    },
    {
      "name": "units",
      "title": "Διδακτικές μονάδες",
      "description": "Διδακτικές μονάδες",
      "type": "Number",
      "nullable": true,
      "size": 4
    },
    {
      "name": "coefficient",
      "title": "Συντελεστής πτυχίου",
      "description": "Συντελεστής πτυχίου",
      "type": "Number",
      "nullable": true,
      "size": 4
    },
    {
      "name": "grade",
      "title": "Βαθμός (0-1)",
      "description": "Βαθμός (0-1)",
      "type": "Number",
      "nullable": true,
      "size": 4
    },
    {
      "name": "gradePeriodDescription",
      "title": "Περιγραφή εξεταστικής περιόδου (μπορεί να περιέχει και ημερομηνία)",
      "description": "Περιγραφή εξεταστικής περιόδου (μπορεί να περιέχει και ημερομηνία)",
      "type": "Text",
      "nullable": true,
      "size": 10
    },
    {
      "name": "courseType",
      "title": "Τύπος μαθήματος",
      "description": "Τύπος μαθήματος",
      "type": "CourseType",
      "nullable": true,
      "expandable": true
    },
    {
      "name": "calculateUnits",
      "title": "Υπολογίζονται οι ΔΜ για τη λήψη πτυχίου",
      "description": "Υπολογίζονται οι ΔΜ για τη λήψη πτυχίου",
      "type": "Integer",
      "nullable": false,
      "size": 2,
      "value": "javascript:return 1;"
    },
    {
      "name": "calculateGrade",
      "title": "Υπολογίζεται στο βαθμό πτυχίου (ΝΑΙ/ΟΧΙ)",
      "description": "Υπολογίζεται στο βαθμό πτυχίου (ΝΑΙ/ΟΧΙ)",
      "type": "Integer",
      "nullable": false,
      "size": 2,
      "value": "javascript:return 1;"
    },
    {
      "name": "calculateTotalGrade",
      "title": "Υπολογίζεται σαν ένας βαθμός",
      "description": "Υπολογίζεται σαν ένας βαθμός από το Μ.Ο των μαθημάτων της ομάδας",
      "type": "Integer",
      "nullable": false,
      "size": 2,
      "value": "javascript:return 1;"
    },
    {
      "name": "groupMin",
      "title": "Ελάχιστος αριθμός μαθημάτων ομάδας",
      "description": "Ελάχιστος αριθμός μαθημάτων ομάδας",
      "type": "Integer",
      "nullable": true,
      "size": 2,
      "value": "javascript:return 1;"
    },
    {
      "name": "groupMax",
      "title": "Μέγιστος αριθμός μαθημάτων ομάδας",
      "description": "Μέγιστος αριθμός μαθημάτων ομάδας",
      "type": "Integer",
      "nullable": true,
      "size": 2,
      "value": "javascript:return 1;"
    },
    {
      "name": "ects",
      "title": "Μονάδες ECTS",
      "description": "Μονάδες ECTS",
      "type": "Number",
      "nullable": true,
      "size": 4
    },
    {
      "name": "dateModified",
      "title": "Ημερομηνία τελευταίας τροποποίησης",
      "description": "Ημερομηνία τελευταίας τροποποίησης",
      "type": "DateTime",
      "nullable": false,
      "size": 8,
      "value": "javascript:return this.now();"
    }
  ],
  "privileges": [
    {
      "mask": 1,
      "type": "global",
      "account": "Administrators"
    },
    {
      "mask": 15,
      "type": "global"
    },
    {
      "mask": 1,
      "type": "self",
      "filter": "student eq student()"
    }
  ]
}